[{"total": 3968, "page": 1, "pages": 80, "per_page": "50"}, [{"date": "2015", "country": {"id": "1A", "value": "Arab World"}, "decimal": "0", "indicator": {"id": "SP.RUR.TOTL.ZS", "value": "Rural population (% of total population)"}, "value": null}, {"date": "2014", "country": {"id": "1A", "value": "Arab World"}, "decimal": "0", "indicator": {"id": "SP.RUR.TOTL.ZS", "value": "Rural population (% of total population)"}, "value": "42.6115434630808"}, {"date": "2013", "country": {"id": "1A", "value": "Arab World"}, "decimal": "0", "indicator": {"id": "SP.RUR.TOTL.ZS", "value": "Rural population (% of total population)"}, "value": "42.8783040625944"}, {"date": "2012", "country": {"id": "1A", "value": "Arab World"}, "decimal": "0", "indicator": {"id": "SP.RUR.TOTL.ZS", "value": "Rural population (% of total population)"}, "value": "43.1509973333027"}, {"date": "2011", "country": {"id": "1A", "value": "Arab World"}, "decimal": "0", "indicator": {"id": "SP.RUR.TOTL.ZS", "value": "Rural population (% of total population)"}, "value": "43.4349225661011"}, {"date": "2010", "country": {"id": "1A", "value": "Arab World"}, "decimal": "0", "indicator": {"id": "SP.RUR.TOTL.ZS", "value": "Rural population (% of total population)"}, "value": "43.7341276650962"}, {"date": "2009", "country": {"id": "1A", "value": "Arab World"}, "decimal": "0", "indicator": {"id": "SP.RUR.TOTL.ZS", "value": "Rural population (% of total population)"}, "value": "44.0655745601195"}, {"date": "2008", "country": {"id": "1A", "value": "Arab World"}, "decimal": "0", "indicator": {"id": "SP.RUR.TOTL.ZS", "value": "Rural population (% of total population)"}, "value": "44.4092151642741"}, {"date": "2007", "country": {"id": "1A", "value": "Arab World"}, "decimal": "0", "indicator": {"id": "SP.RUR.TOTL.ZS", "value": "Rural population (% of total population)"}, "value": "44.7580671994564"}, {"date": "2006", "country": {"id": "1A", "value": "Arab World"}, "decimal": "0", "indicator": {"id": "SP.RUR.TOTL.ZS", "value": "Rural population (% of total population)"}, "value": "45.1075563516223"}, {"date": "2005", "country": {"id": "1A", "value": "Arab World"}, "decimal": "0", "indicator": {"id": "SP.RUR.TOTL.ZS", "value": "Rural population (% of total population)"}, "value": "45.4552464029246"}, {"date": "2004", "country": {"id": "1A", "value": "Arab World"}, "decimal": "0", "indicator": {"id": "SP.RUR.TOTL.ZS", "value": "Rural population (% of total population)"}, "value": "45.7825566451696"}, {"date": "2003", "country": {"id": "1A", "value": "Arab World"}, "decimal": "0", "indicator": {"id": "SP.RUR.TOTL.ZS", "value": "Rural population (% of total population)"}, "value": "46.0820499200012"}, {"date": "2002", "country": {"id": "1A", "value": "Arab World"}, "decimal": "0", "indicator": {"id": "SP.RUR.TOTL.ZS", "value": "Rural population (% of total population)"}, "value": "46.366713575047"}, {"date": "2001", "country": {"id": "1A", "value": "Arab World"}, "decimal": "0", "indicator": {"id": "SP.RUR.TOTL.ZS", "value": "Rural population (% of total population)"}, "value": "46.6446291883647"}, {"date": "2000", "country": {"id": "1A", "value": "Arab World"}, "decimal": "0", "indicator": {"id": "SP.RUR.TOTL.ZS", "value": "Rural population (% of total population)"}, "value": "46.9200048865747"}, {"date": "2015", "country": {"id": "S3", "value": "Caribbean small states"}, "decimal": "0", "indicator": {"id": "SP.RUR.TOTL.ZS", "value": "Rural population (% of total population)"}, "value": null}, {"date": "2014", "country": {"id": "S3", "value": "Caribbean small states"}, "decimal": "0", "indicator": {"id": "SP.RUR.TOTL.ZS", "value": "Rural population (% of total population)"}, "value": "57.915662788985"}, {"date": "2013", "country": {"id": "S3", "value": "Caribbean small states"}, "decimal": "0", "indicator": {"id": "SP.RUR.TOTL.ZS", "value": "Rural population (% of total population)"}, "value": "57.9947948755551"}, {"date": "2012", "country": {"id": "S3", "value": "Caribbean small states"}, "decimal": "0", "indicator": {"id": "SP.RUR.TOTL.ZS", "value": "Rural population (% of total population)"}, "value": "58.0629895910515"}, {"date": "2011", "country": {"id": "S3", "value": "Caribbean small states"}, "decimal": "0", "indicator": {"id": "SP.RUR.TOTL.ZS", "value": "Rural population (% of total population)"}, "value": "58.1227243086074"}, {"date": "2010", "country": {"id": "S3", "value": "Caribbean small states"}, "decimal": "0", "indicator": {"id": "SP.RUR.TOTL.ZS", "value": "Rural population (% of total population)"}, "value": "58.1755945654643"}, {"date": "2009", "country": {"id": "S3", "value": "Caribbean small states"}, "decimal": "0", "indicator": {"id": "SP.RUR.TOTL.ZS", "value": "Rural population (% of total population)"}, "value": "58.2078448009187"}, {"date": "2008", "country": {"id": "S3", "value": "Caribbean small states"}, "decimal": "0", "indicator": {"id": "SP.RUR.TOTL.ZS", "value": "Rural population (% of total population)"}, "value": "58.2370754975634"}, {"date": "2007", "country": {"id": "S3", "value": "Caribbean small states"}, "decimal": "0", "indicator": {"id": "SP.RUR.TOTL.ZS", "value": "Rural population (% of total population)"}, "value": "58.2654425951505"}, {"date": "2006", "country": {"id": "S3", "value": "Caribbean small states"}, "decimal": "0", "indicator": {"id": "SP.RUR.TOTL.ZS", "value": "Rural population (% of total population)"}, "value": "58.2919994562379"}, {"date": "2005", "country": {"id": "S3", "value": "Caribbean small states"}, "decimal": "0", "indicator": {"id": "SP.RUR.TOTL.ZS", "value": "Rural population (% of total population)"}, "value": "58.3158520717624"}, {"date": "2004", "country": {"id": "S3", "value": "Caribbean small states"}, "decimal": "0", "indicator": {"id": "SP.RUR.TOTL.ZS", "value": "Rural population (% of total population)"}, "value": "58.3367063164147"}, {"date": "2003", "country": {"id": "S3", "value": "Caribbean small states"}, "decimal": "0", "indicator": {"id": "SP.RUR.TOTL.ZS", "value": "Rural population (% of total population)"}, "value": "58.3642112620123"}, {"date": "2002", "country": {"id": "S3", "value": "Caribbean small states"}, "decimal": "0", "indicator": {"id": "SP.RUR.TOTL.ZS", "value": "Rural population (% of total population)"}, "value": "58.3886296028464"}, {"date": "2001", "country": {"id": "S3", "value": "Caribbean small states"}, "decimal": "0", "indicator": {"id": "SP.RUR.TOTL.ZS", "value": "Rural population (% of total population)"}, "value": "58.4192181179695"}, {"date": "2000", "country": {"id": "S3", "value": "Caribbean small states"}, "decimal": "0", "indicator": {"id": "SP.RUR.TOTL.ZS", "value": "Rural population (% of total population)"}, "value": "58.5059010949513"}, {"date": "2015", "country": {"id": "B8", "value": "Central Europe and the Baltics"}, "decimal": "0", "indicator": {"id": "SP.RUR.TOTL.ZS", "value": "Rural population (% of total population)"}, "value": null}, {"date": "2014", "country": {"id": "B8", "value": "Central Europe and the Baltics"}, "decimal": "0", "indicator": {"id": "SP.RUR.TOTL.ZS", "value": "Rural population (% of total population)"}, "value": "37.732893672516"}, {"date": "2013", "country": {"id": "B8", "value": "Central Europe and the Baltics"}, "decimal": "0", "indicator": {"id": "SP.RUR.TOTL.ZS", "value": "Rural population (% of total population)"}, "value": "37.8023596024117"}, {"date": "2012", "country": {"id": "B8", "value": "Central Europe and the Baltics"}, "decimal": "0", "indicator": {"id": "SP.RUR.TOTL.ZS", "value": "Rural population (% of total population)"}, "value": "37.8581526506611"}, {"date": "2011", "country": {"id": "B8", "value": "Central Europe and the Baltics"}, "decimal": "0", "indicator": {"id": "SP.RUR.TOTL.ZS", "value": "Rural population (% of total population)"}, "value": "37.9004829589211"}, {"date": "2010", "country": {"id": "B8", "value": "Central Europe and the Baltics"}, "decimal": "0", "indicator": {"id": "SP.RUR.TOTL.ZS", "value": "Rural population (% of total population)"}, "value": "37.9405831667341"}, {"date": "2009", "country": {"id": "B8", "value": "Central Europe and the Baltics"}, "decimal": "0", "indicator": {"id": "SP.RUR.TOTL.ZS", "value": "Rural population (% of total population)"}, "value": "37.9798402942359"}, {"date": "2008", "country": {"id": "B8", "value": "Central Europe and the Baltics"}, "decimal": "0", "indicator": {"id": "SP.RUR.TOTL.ZS", "value": "Rural population (% of total population)"}, "value": "38.0350070646192"}, {"date": "2007", "country": {"id": "B8", "value": "Central Europe and the Baltics"}, "decimal": "0", "indicator": {"id": "SP.RUR.TOTL.ZS", "value": "Rural population (% of total population)"}, "value": "38.1123658050857"}, {"date": "2006", "country": {"id": "B8", "value": "Central Europe and the Baltics"}, "decimal": "0", "indicator": {"id": "SP.RUR.TOTL.ZS", "value": "Rural population (% of total population)"}, "value": "38.1760491759287"}, {"date": "2005", "country": {"id": "B8", "value": "Central Europe and the Baltics"}, "decimal": "0", "indicator": {"id": "SP.RUR.TOTL.ZS", "value": "Rural population (% of total population)"}, "value": "38.2327702276193"}, {"date": "2004", "country": {"id": "B8", "value": "Central Europe and the Baltics"}, "decimal": "0", "indicator": {"id": "SP.RUR.TOTL.ZS", "value": "Rural population (% of total population)"}, "value": "38.2832496133194"}, {"date": "2003", "country": {"id": "B8", "value": "Central Europe and the Baltics"}, "decimal": "0", "indicator": {"id": "SP.RUR.TOTL.ZS", "value": "Rural population (% of total population)"}, "value": "38.3255995004185"}, {"date": "2002", "country": {"id": "B8", "value": "Central Europe and the Baltics"}, "decimal": "0", "indicator": {"id": "SP.RUR.TOTL.ZS", "value": "Rural population (% of total population)"}, "value": "38.3677391368699"}, {"date": "2001", "country": {"id": "B8", "value": "Central Europe and the Baltics"}, "decimal": "0", "indicator": {"id": "SP.RUR.TOTL.ZS", "value": "Rural population (% of total population)"}, "value": "38.4281942512109"}, {"date": "2000", "country": {"id": "B8", "value": "Central Europe and the Baltics"}, "decimal": "0", "indicator": {"id": "SP.RUR.TOTL.ZS", "value": "Rural population (% of total population)"}, "value": "38.4325607358728"}, {"date": "2001", "country": {"id": "Z4", "value": "East Asia & Pacific (all income levels)"}, "decimal": "0", "indicator": {"id": "SP.RUR.TOTL.ZS", "value": "Rural population (% of total population)"}, "value": "57.7759364235748"}, {"date": "2000", "country": {"id": "Z4", "value": "East Asia & Pacific (all income levels)"}, "decimal": "0", "indicator": {"id": "SP.RUR.TOTL.ZS", "value": "Rural population (% of total population)"}, "value": "58.7735668658193"}]]